{
  "project_info": {
    "project_number": "1048712255960",
    "project_id": "firestoretest-8ddf1",
    "storage_bucket": "firestoretest-8ddf1.appspot.com"
  },
  "client": [
    {
      "client_info": {
        "mobilesdk_app_id": "1:1048712255960:android:8cb073058992455866faad",
        "android_client_info": {
          "package_name": "com.example.testingfirestore"
        }
      },
      "oauth_client": [
        {
          "client_id": "1048712255960-1o1t4qeqktc9pi3c9d92c72fli74acdi.apps.googleusercontent.com",
          "client_type": 3
        }
      ],
      "api_key": [
        {
          "current_key": "AIzaSyCPm84Kju9IMKjGf2sqJ9Mhjh1Szi2teUg"
        }
      ],
      "services": {
        "appinvite_service": {
          "other_platform_oauth_client": [
            {
              "client_id": "1048712255960-1o1t4qeqktc9pi3c9d92c72fli74acdi.apps.googleusercontent.com",
              "client_type": 3
            }
          ]
        }
      }
    }
  ],
  "configuration_version": "1"
}